<?xml version="1.0" standalone="no"?>
<!DOCTYPE svg PUBLIC "-//W3C//DTD SVG 1.1//EN" "http://www.w3.org/Graphics/SVG/1.1/DTD/svg11.dtd" >
<svg xmlns="http://www.w3.org/2000/svg">
<metadata>
This is a custom SVG webfont generated by Font Squirrel.
Copyright   :  1981 LinotypeHell AG
</metadata>
<defs>
<font id="webfontBMuoXTdn" horiz-adv-x="1139" >
<font-face units-per-em="2048" ascent="1638" descent="-410" />
<missing-glyph horiz-adv-x="569" />
<glyph unicode=" "  horiz-adv-x="569" />
<glyph unicode="&#x09;" horiz-adv-x="569" />
<glyph unicode="&#xa0;" horiz-adv-x="569" />
<glyph unicode="!" horiz-adv-x="569" d="M186 1470h197v-485l-47 -635h-103l-47 635v485zM186 0v209h197v-209h-197z" />
<glyph unicode="&#x22;" horiz-adv-x="727" d="M102 1470h180l-28 -588h-121zM443 1470h183l-31 -588h-121z" />
<glyph unicode="#" d="M1 446l31 116h232l95 343h-232l30 117h233l118 448h150l-121 -448h220l123 448h147l-121 -448h233l-31 -117h-232l-95 -343h232l-31 -116h-230l-123 -446h-147l121 446h-223l-118 -446h-150l121 446h-232zM413 562h219l94 343h-220z" />
<glyph unicode="$" d="M522 651q-135 29 -228 72.5t-145.5 121t-52.5 188.5q0 102 39 178t97 123.5t127 72.5t163 31v147h98v-147q138 -10 234.5 -64t143.5 -150q34 -70 38 -169h-174q-19 108 -73 162t-169 73v-479q135 -34 195 -58q95 -37 149 -87t82.5 -119t28.5 -151q0 -111 -50.5 -209.5 t-149 -153t-255.5 -66.5v-162h-98v162q-166 12 -269 74t-151 174q-36 84 -35 223h184q3 -106 29.5 -168.5t83.5 -100t158 -54.5v536zM522 1290q-112 -3 -177 -68t-65 -164q0 -84 58 -144.5t184 -82.5v459zM620 115q60 2 102 15t79 42t63 80t26 120q0 94 -56.5 156 t-213.5 101v-514z" />
<glyph unicode="%" horiz-adv-x="1821" d="M1255 1499h133l-899 -1581h-133zM78 1077q0 176 91 270.5t246 94.5q153 0 242 -94.5t89 -265.5q0 -114 -41.5 -200.5t-120.5 -129.5t-174 -43q-149 0 -240.5 96t-91.5 272zM237 1078q0 -133 49 -191t127 -58q75 0 123.5 58.5t48.5 187.5q0 131 -48 189t-124 58 t-126 -59.5t-50 -184.5zM1024 340q0 176 91 270.5t246 94.5q153 0 241.5 -94.5t88.5 -265.5q0 -114 -41 -200.5t-120 -129.5t-174 -43q-150 0 -241 96t-91 272zM1182 341q0 -133 49 -191t128 -58q75 0 123.5 59t48.5 187q0 131 -48 189t-124 58t-126.5 -59.5t-50.5 -184.5z " />
<glyph unicode="&#x26;" horiz-adv-x="1366" d="M1126 0l-137 168q-65 -71 -109 -103.5t-94 -53.5t-107 -32.5t-123 -11.5q-200 0 -316 111.5t-116 291.5q0 104 36 179t100 130.5t200 137.5q-83 94 -118 171.5t-35 158.5q0 140 95 231.5t254 91.5q152 0 240 -84t88 -217q0 -83 -32 -151t-82.5 -117.5t-151.5 -118.5 l269 -319q34 82 59 229h172q-15 -122 -43.5 -209.5t-77.5 -165.5l262 -317h-233zM624 899q101 65 144.5 128t43.5 132q0 73 -45 118.5t-120 45.5q-78 0 -123 -44t-45 -116q0 -53 29.5 -112t115.5 -152zM560 694q-95 -58 -147 -104.5t-78 -100t-26 -116.5q0 -109 76.5 -183.5 t194.5 -74.5q96 0 172.5 45.5t139.5 128.5z" />
<glyph unicode="'" horiz-adv-x="391" d="M104 1470h182l-33 -588h-116z" />
<glyph unicode="(" horiz-adv-x="682" d="M482 1491h121q-113 -215 -165 -347.5t-79 -275.5t-27 -333q0 -156 16.5 -270t49 -221t79 -210.5t126.5 -255.5h-121q-106 155 -165 273q-80 157 -124.5 326.5t-44.5 356.5q0 193 50 378q42 155 122 312q60 119 162 267z" />
<glyph unicode=")" horiz-adv-x="682" d="M201 -422h-121q113 216 165 348.5t78 274.5q27 143 27 333q0 156 -16 269.5t-48.5 220.5t-78.5 210.5t-127 256.5h121q106 -155 165 -273q80 -159 124.5 -327.5t44.5 -355.5q0 -193 -46.5 -363.5t-126.5 -327.5q-60 -119 -161 -266z" />
<glyph unicode="*" horiz-adv-x="797" d="M337 1245v225h123v-225l213 68l39 -103l-217 -69l133 -193l-97 -65l-133 188l-133 -188l-96 65l133 193l-217 69l39 103z" />
<glyph unicode="+" horiz-adv-x="1196" d="M512 0v432h-432v172h432v432h172v-432h432v-172h-432v-432h-172z" />
<glyph unicode="," horiz-adv-x="569" d="M180 0v221h209v-205q0 -138 -48 -207.5t-161 -103.5v94q36 9 57 29t33 57t14 115h-104z" />
<glyph unicode="-" horiz-adv-x="682" d="M90 479v185h502v-185h-502z" />
<glyph unicode="." horiz-adv-x="569" d="M180 0v221h209v-221h-209z" />
<glyph unicode="/" horiz-adv-x="569" d="M466 1469h152l-466 -1469h-152z" />
<glyph unicode="0" d="M76 693q0 396 158 592q123 153 346 153q105 0 185.5 -34.5t138.5 -97.5q43 -46 80.5 -128t58 -201t20.5 -262q0 -399 -155 -592q-125 -156 -344 -156q-153 0 -264 82.5t-167.5 254.5t-56.5 389zM273 690q0 -340 90 -465q71 -98 205 -98q130 0 201 100q98 139 98 482 q0 345 -91 471q-70 98 -205 98q-154 0 -226 -143.5t-72 -444.5z" />
<glyph unicode="1" d="M533 0v1028h-336v135q149 10 212 32.5t106 78t69 164.5h145v-1438h-196z" />
<glyph unicode="2" d="M101 924q-1 113 20 188q28 102 93.5 177t160.5 112t213 37q218 0 341.5 -119t123.5 -312q0 -86 -25 -152.5t-77 -125.5t-136 -114q-38 -25 -234 -134q-81 -45 -142 -86q-62 -42 -94 -78q-33 -36 -49 -67.5t-27 -77.5h782v-172h-985q14 157 41 239t76 146.5t139 132.5 q40 32 189 116q149 85 179 105q67 45 99 81q32 37 50 82.5t18 106.5q0 121 -76.5 195t-207.5 74q-148 0 -214 -94t-74 -260h-184z" />
<glyph unicode="3" d="M237 440q6 -159 83 -236t220 -77q149 0 232.5 77.5t83.5 200.5q0 70 -24 122t-74 84.5t-137 44.5q-50 8 -181 8v148q149 -2 219 17.5t110 75t40 137.5q0 105 -68.5 170.5t-189.5 65.5q-91 0 -155.5 -35.5t-97 -104t-36.5 -175.5h-172q3 108 22 174q30 101 94.5 171 t153.5 100t189 30q212 0 328 -108t116 -278q0 -107 -48 -179.5t-142 -110.5q77 -24 119 -55q62 -45 96 -115t34 -168q0 -131 -63.5 -240.5t-182 -163t-263.5 -53.5q-125 0 -216.5 34.5t-148.5 96t-87.5 143.5t-37.5 199h184z" />
<glyph unicode="4" d="M678 0v350h-627v178l657 910h154v-928h209v-160h-209v-350h-184zM678 510v643l-461 -643h461z" />
<glyph unicode="5" d="M119 637l119 768h735v-172h-610l-62 -395q61 44 126.5 67t146.5 23q176 0 307 -99q172 -130 172 -363q0 -133 -60.5 -250t-175.5 -183t-275 -66q-152 0 -258.5 57t-162.5 158q-40 73 -51 183h184q11 -110 86 -174t205 -64q139 0 225 89t86 237q0 142 -85 228.5t-223 86.5 q-173 0 -273 -139z" />
<glyph unicode="6" d="M850 1057q-22 115 -83 168t-158 53q-95 0 -170.5 -55t-121 -177t-57.5 -312q111 179 340 179q202 0 327.5 -126t125.5 -328q0 -122 -51.5 -239.5t-158.5 -185t-261 -67.5q-221 0 -348 137q-158 170 -158 536q0 247 62.5 432t182.5 275.5t290 90.5q110 0 200 -43 q67 -32 113.5 -83t70.5 -111.5t31 -143.5h-176zM285 446q0 -143 84 -231t209 -88q124 0 207.5 87.5t83.5 232.5q0 144 -78.5 225.5t-212.5 81.5t-213.5 -81.5t-79.5 -226.5z" />
<glyph unicode="7" d="M76 1221v184h995v-162q-114 -131 -177 -226q-105 -156 -195 -343q-91 -187 -150 -376q-40 -129 -70 -298h-198q18 127 50 235q51 171 138 357t202 362q78 121 198 267h-793z" />
<glyph unicode="8" d="M825 766q78 -37 118 -72q52 -45 84 -114t32 -169q0 -196 -130.5 -320t-359.5 -124q-227 0 -358 124t-131 314q0 140 64.5 225t179.5 134q-85 35 -130 89q-65 78 -65 195q0 169 117.5 279.5t322.5 110.5q134 0 235 -49.5t153.5 -142.5t52.5 -193q0 -96 -48 -169.5 t-137 -117.5zM313 1058q0 -103 67 -167t185 -64t189.5 67t71.5 164q0 96 -67.5 158t-195.5 62q-122 0 -186 -59.5t-64 -160.5zM277 398q0 -121 77.5 -196t214.5 -75q138 0 215.5 75t77.5 196q0 119 -78 194.5t-215 75.5q-136 0 -214 -75t-78 -195z" />
<glyph unicode="9" d="M289 348q21 -115 82.5 -168t159.5 -53q108 0 185 67.5t120 208.5q33 105 43 268q-34 -55 -64 -82q-48 -44 -117.5 -70.5t-160.5 -26.5q-128 0 -235 57.5t-161.5 163.5t-54.5 234q0 121 51.5 238.5t158.5 185t261 67.5q222 0 350 -139q156 -170 156 -534 q0 -248 -62.5 -433t-182.5 -275t-290 -90q-110 0 -200 43q-67 32 -113.5 83t-71 111.5t-30.5 143.5h176zM270 959q0 -145 79 -226.5t212 -81.5q134 0 213.5 81.5t79.5 225.5t-83.5 232t-209.5 88q-124 0 -207.5 -87.5t-83.5 -231.5z" />
<glyph unicode=":" horiz-adv-x="569" d="M180 850v221h209v-221h-209zM180 0v221h209v-221h-209z" />
<glyph unicode=";" horiz-adv-x="569" d="M180 850v221h209v-221h-209zM180 0v221h209v-205q0 -138 -48 -207.5t-161 -103.5v94q36 9 57 29t33 57t14 115h-104z" />
<glyph unicode="&#x3c;" horiz-adv-x="1196" d="M80 440v156l1036 457v-181l-805 -354l805 -354v-180z" />
<glyph unicode="=" horiz-adv-x="1196" d="M80 647v172h1036v-172h-1036zM80 217v172h1036v-172h-1036z" />
<glyph unicode="&#x3e;" horiz-adv-x="1196" d="M80 -16v180l805 354l-805 354v181l1036 -457v-156z" />
<glyph unicode="?" d="M338 1010h-185q-4 221 121.5 351t337.5 130q131 0 233.5 -50t157 -144t54.5 -203q0 -70 -21 -124t-56.5 -98t-116 -119.5t-117.5 -123.5t-51.5 -93t-14.5 -108v-53h-185v57q0 62 12 111.5t37 92.5t71 95q25 30 89 92t88 92q35 42 51.5 83.5t16.5 93.5q0 108 -67.5 173.5 t-185.5 65.5q-122 0 -193 -76.5t-76 -244.5zM489 0v209h197v-209h-197z" />
<glyph unicode="@" horiz-adv-x="2079" d="M1347 1126h147l-133 -439q-28 -95 -28 -134q0 -42 24 -65t66 -23q66 0 134.5 48t114.5 149t46 225q0 148 -68 264t-208.5 178.5t-332.5 62.5q-163 0 -298.5 -47t-230 -135t-154.5 -215t-60 -290q0 -274 188.5 -453t513.5 -179q122 0 224 24q103 25 200 73q66 33 156 98 l67 -90q-75 -59 -145 -95q-109 -58 -240 -92t-283 -34q-174 0 -328 52q-100 34 -195.5 102.5t-163.5 168t-101 208.5t-33 224q0 194 97 375t293.5 302t479.5 121q224 0 399.5 -76t266 -222.5t90.5 -325.5q0 -152 -65 -282.5t-168 -195t-212 -64.5q-94 0 -142 44t-48 116 q0 17 4 41q-52 -105 -126 -156.5t-171 -51.5q-118 0 -197.5 86.5t-79.5 232.5q0 106 40 204t96.5 162t127.5 100.5t155 36.5q69 0 122.5 -29.5t83.5 -82.5q20 -35 25 -89zM1250 893q0 42 -19 80.5t-57 59.5t-78 21q-58 0 -123 -47.5t-112.5 -155t-47.5 -208.5 q0 -90 44.5 -141t109.5 -51q42 0 78 19q48 25 91 79t70 128q16 42 30 106t14 110z" />
<glyph unicode="A" horiz-adv-x="1366" d="M1128 0l-158 444h-573l-158 -444h-211l553 1470h225l533 -1470h-211zM915 604l-232 651l-231 -651h463z" />
<glyph unicode="B" horiz-adv-x="1366" d="M152 0v1470h629q140 0 236 -44q97 -44 147.5 -133t50.5 -188q0 -101 -49 -184.5t-147 -127.5q115 -43 177 -111q89 -98 89 -248q0 -89 -30.5 -166.5t-73.5 -126t-92.5 -76.5t-127.5 -46.5t-200 -18.5h-609zM349 844h367q104 0 164 19q43 13 69.5 36.5t46.5 70t20 107.5 q0 76 -33.5 127.5t-93.5 72.5q-61 21 -173 21h-367v-454zM349 173h391q197 0 271.5 65.5t74.5 196.5q0 124 -83 186.5t-263 62.5h-391v-511z" />
<glyph unicode="C" horiz-adv-x="1479" d="M1176 1034q-27 88 -67 142q-54 73 -140 115t-196 42q-144 0 -254.5 -69.5t-175 -205t-64.5 -326.5q0 -283 138.5 -439t337.5 -156q164 0 283 104.5t150 284.5h190q-18 -136 -70.5 -236t-135.5 -174t-185.5 -113.5t-239.5 -39.5q-175 0 -297 62t-199.5 156t-116.5 205 q-54 154 -54 336q0 234 83 416.5t242.5 275.5t362.5 93q164 0 301.5 -62.5t220.5 -188.5q59 -91 78 -222h-192z" />
<glyph unicode="D" horiz-adv-x="1479" d="M152 0v1470h576q141 0 249 -38.5t201.5 -137t139 -232t45.5 -306.5q0 -199 -61 -357.5t-158 -253.5q-74 -71 -201 -115q-88 -30 -222 -30h-569zM349 173h347q84 0 143 14q59 15 116.5 48t94.5 83q50 67 82 177t32 248q0 146 -34.5 254.5t-94 174t-139.5 96t-200 30.5 h-347v-1125z" />
<glyph unicode="E" horiz-adv-x="1366" d="M152 0v1470h1073v-172h-876v-454h809v-172h-809v-499h890v-173h-1087z" />
<glyph unicode="F" horiz-adv-x="1251" d="M175 0v1470h1019v-172h-822v-457h723v-173h-723v-668h-197z" />
<glyph unicode="G" horiz-adv-x="1593" d="M1417 1024h-196q-20 92 -64 151q-56 78 -147.5 118t-203.5 40q-261 0 -394 -200q-114 -173 -114 -417q0 -242 125 -410.5t374 -168.5q122 0 209.5 40t143 104.5t80.5 143t26 196.5h-460v166h645v-787h-128l-47 190q-55 -67 -101 -102q-71 -55 -170 -90t-226 -35 q-195 0 -345 86.5t-237.5 262t-87.5 418.5q0 233 89.5 409t253 272t360.5 96q212 0 375 -105q201 -129 240 -378z" />
<glyph unicode="H" horiz-adv-x="1479" d="M152 0v1470h197v-605h782v605h197v-1470h-197v692h-782v-692h-197z" />
<glyph unicode="I" horiz-adv-x="569" d="M186 0v1470h197v-1470h-197z" />
<glyph unicode="J" horiz-adv-x="1024" d="M219 473v-102q0 -123 54.5 -178.5t166.5 -55.5q124 0 180 60t56 206v1067h197v-1056q0 -106 -20 -176q-27 -90 -79 -150.5t-135.5 -92.5t-191.5 -32q-140 0 -235.5 50t-142.5 147q-34 72 -34 196v117h184z" />
<glyph unicode="K" horiz-adv-x="1366" d="M152 0v1470h197v-716l717 716h274l-612 -593l628 -877h-258l-516 739l-233 -227v-512h-197z" />
<glyph unicode="L" d="M152 0v1470h197v-1297h746v-173h-943z" />
<glyph unicode="M" horiz-adv-x="1706" d="M153 0v1470h283l417 -1243l418 1243h283v-1470h-184v1249l-418 -1249h-197l-418 1249v-1249h-184z" />
<glyph unicode="N" horiz-adv-x="1479" d="M156 0v1470h235l742 -1190v1190h189v-1470h-223l-753 1190v-1190h-190z" />
<glyph unicode="O" horiz-adv-x="1593" d="M1514 744q0 -181 -60 -339q-75 -199 -245.5 -320.5t-421.5 -121.5q-211 0 -369.5 89t-248 263.5t-89.5 415.5q0 174 49 319.5t145 248t228 155.5t295 53q162 0 293 -52.5t221.5 -148t138.5 -215.5q64 -160 64 -347zM1314 729q0 289 -145 446.5t-372 157.5 q-248 0 -383 -169t-135 -435q0 -192 67 -329t182 -200t269 -63q173 0 292.5 78t172 215t52.5 299z" />
<glyph unicode="P" horiz-adv-x="1366" d="M152 0v1470h619q238 0 354.5 -111t116.5 -314q0 -228 -138 -347q-102 -88 -333 -88h-422v-610h-197zM349 783h401q111 0 170 25q60 26 91.5 87t31.5 150q0 125 -68.5 189t-224.5 64h-401v-515z" />
<glyph unicode="Q" horiz-adv-x="1593" d="M1501 5l-100 -121l-227 177q-93 -51 -167 -71q-102 -27 -219 -27q-212 0 -370.5 89t-248 263.5t-89.5 415.5q0 174 49 319.5t145 248t228 155.5t295 53q206 0 367.5 -87t255.5 -266.5t94 -409.5q0 -123 -28.5 -236.5t-78.5 -202.5q-38 -67 -107 -143zM861 303l99 124 l199 -156q71 77 106 167q49 127 49 291q0 289 -145 446.5t-372 157.5q-248 0 -383 -169t-135 -435q0 -192 66.5 -328t181.5 -200t268 -64q115 0 225 42z" />
<glyph unicode="R" horiz-adv-x="1479" d="M181 0v1470h671q170 0 272 -42q103 -42 161 -135t58 -216q0 -140 -55 -223.5t-152 -130.5q88 -32 131 -94t47 -183l7 -197q4 -90 8 -115q7 -34 23 -58.5t48 -42.5v-33h-245q-12 36 -16 64q-7 37 -10 102l-10 225q-5 96 -30 143t-81 72t-177 25h-453v-631h-197zM378 796 h439q126 0 177 17q74 24 107 72q43 64 43 167q0 135 -88 201q-60 45 -196 45h-482v-502z" />
<glyph unicode="S" horiz-adv-x="1366" d="M1040 1038q-12 140 -103.5 217.5t-263.5 77.5q-115 0 -191.5 -31.5t-112.5 -89t-36 -121.5q0 -76 49.5 -126.5t200.5 -87.5l293 -72q229 -56 310 -154t81 -246q0 -127 -59.5 -223.5t-177.5 -150.5q-145 -68 -350 -68q-203 0 -339 73.5t-198 209.5q-43 94 -43 225v6h184 q3 -71 17 -114q21 -63 67.5 -111t125.5 -81.5t194 -33.5q141 0 239 45q72 32 106.5 85t34.5 120q0 103 -65.5 154.5t-216.5 89.5l-262 65q-210 53 -292.5 145t-82.5 229q0 125 63 227.5t183.5 156t281.5 53.5q167 0 295 -58.5t188 -160.5t64 -250h-184z" />
<glyph unicode="T" horiz-adv-x="1251" d="M28 1298v172h1196v-172h-499v-1298h-197v1298h-500z" />
<glyph unicode="U" horiz-adv-x="1479" d="M161 1470h197v-908q0 -166 33.5 -246t121.5 -129.5t223 -49.5q192 0 288.5 100.5t96.5 324.5v908h197v-892q0 -200 -60.5 -331.5t-198 -207.5t-336.5 -76q-128 0 -224 29.5t-159.5 81.5t-102.5 115q-28 47 -52 135q-24 89 -24 254v892z" />
<glyph unicode="V" horiz-adv-x="1366" d="M42 1470h220l421 -1252l419 1252h222l-535 -1470h-211z" />
<glyph unicode="W" horiz-adv-x="1933" d="M33 1470h216l277 -1195l332 1195h216l331 -1195l278 1195h218l-387 -1470h-208l-339 1218l-341 -1218h-209z" />
<glyph unicode="X" horiz-adv-x="1366" d="M282 0h-244l522 754l-493 716h243l373 -563l373 563h244l-494 -716l522 -754h-244l-401 604z" />
<glyph unicode="Y" horiz-adv-x="1366" d="M585 593l-555 877h237l418 -698l419 698h232l-554 -877v-593h-197v593z" />
<glyph unicode="Z" horiz-adv-x="1251" d="M47 0v163l901 1135h-835v172h1091v-172l-906 -1125h906v-173h-1157z" />
<glyph unicode="[" horiz-adv-x="569" d="M134 -401v1871h383v-147h-211v-1577h211v-147h-383z" />
<glyph unicode="\" horiz-adv-x="569" d="M152 1469l466 -1469h-152l-466 1469h152z" />
<glyph unicode="]" horiz-adv-x="569" d="M52 -401v147h211v1577h-211v147h383v-1871h-383z" />
<glyph unicode="^" horiz-adv-x="961" d="M403 1470h154l353 -863h-163l-266 661l-265 -661h-164z" />
<glyph unicode="_" d="M0 -256v102h1139v-102h-1139z" />
<glyph unicode="`" horiz-adv-x="682" d="M343 1212l-268 295h223l183 -295h-138z" />
<glyph unicode="a" d="M134 750q6 91 30.5 151t73.5 104.5t132 71.5t196 27q111 0 192 -23t129 -65t70 -95.5t22 -121.5v-596q0 -47 15.5 -64.5t43.5 -17.5q21 0 60 8v-129q-60 -14 -104 -14q-93 0 -135.5 36.5t-50.5 118.5q-82 -87 -171.5 -130.5t-208.5 -43.5q-157 0 -249 88t-92 226 q0 80 30 144t84 107q32 27 88.5 50t119.5 30l290 36q55 7 79 35.5t24 87.5q0 89 -56 137t-188 48q-123 0 -182.5 -51t-69.5 -155h-172zM798 545q-28 -19 -59 -28q-46 -13 -175 -31q-95 -13 -126 -21q-60 -15 -96 -38.5t-53 -54.5t-17 -76q0 -81 52.5 -131.5t148.5 -50.5 q122 0 223.5 71.5t101.5 187.5v172z" />
<glyph unicode="b" d="M119 1470h182v-536q54 79 117 117q88 53 202 53q120 0 226 -62.5t161.5 -187.5t55.5 -296q0 -282 -145 -448q-125 -143 -317 -143q-120 0 -206 54q-62 38 -109 116v-137h-167v1470zM584 128q126 0 210 101t84 320q0 205 -80 299.5t-204 94.5q-135 0 -223 -100.5 t-88 -305.5q0 -209 84 -309t217 -100z" />
<glyph unicode="c" horiz-adv-x="1024" d="M977 375q-24 -195 -143 -301.5t-308 -106.5q-112 0 -192.5 37t-133 100t-81.5 137q-47 123 -47 276q0 159 53 293.5t164.5 214t267.5 79.5q181 0 292 -103t128 -294h-172q-16 110 -75.5 173t-171.5 63q-131 0 -216 -103.5t-85 -330.5q0 -168 59 -262q75 -119 219 -119 q104 0 175.5 62t94.5 185h172z" />
<glyph unicode="d" d="M824 934v536h181v-1470h-163v134q-55 -62 -96 -93.5t-101.5 -52.5t-134.5 -21q-193 0 -320.5 141t-127.5 404q0 158 49.5 293.5t156.5 217t250 81.5q84 0 143.5 -25.5t101.5 -65.5q27 -26 61 -79zM247 524q0 -207 90 -316q70 -85 198 -85q138 0 221.5 100.5t83.5 324.5 q0 175 -66 274q-83 125 -227 125q-82 0 -151.5 -44.5t-109 -142.5t-39.5 -236z" />
<glyph unicode="e" d="M1047 342q-29 -113 -73 -178q-61 -87 -164.5 -142t-234.5 -55q-147 0 -263 69.5t-174 200t-58 291.5q0 267 144.5 421.5t356.5 154.5q117 0 220 -47.5t163 -133t83 -203.5q12 -67 12 -224v-25h-782q3 -102 36.5 -180t103.5 -120.5t160 -42.5q109 0 178 49t114 165h178z M875 618q-7 162 -86.5 243.5t-205.5 81.5q-122 0 -207.5 -84.5t-98.5 -240.5h598z" />
<glyph unicode="f" horiz-adv-x="569" d="M357 929v-929h-181v929h-148v142h148v166q0 89 25 138t87.5 82t160.5 33q41 0 86 -6v-164q-46 5 -70 5q-57 0 -82.5 -27t-25.5 -99v-128h178v-142h-178z" />
<glyph unicode="g" d="M863 927v144h166v-983q0 -159 -29 -255t-97 -161t-161 -95t-196 -30q-105 0 -198 31q-71 24 -118.5 67t-72 95t-33.5 127h183q10 -52 30 -79q27 -37 81 -58.5t132 -21.5q107 0 179 42t99.5 110.5t27.5 213.5v75q-66 -87 -143.5 -126.5t-185.5 -39.5q-193 0 -318.5 138.5 t-125.5 386.5q0 169 59 306t167.5 206.5t234.5 69.5q111 0 201 -53q63 -37 118 -110zM859 550q0 120 -36 206t-103.5 130t-153.5 44q-85 0 -154 -43t-106.5 -139t-37.5 -226q0 -199 76 -288.5t204 -89.5q163 0 237 118t74 288z" />
<glyph unicode="h" d="M135 0v1470h182v-543q45 61 79 90t73 47.5t83 29t97 10.5q113 0 198 -47.5t121 -130t36 -239.5v-687h-182v676q0 105 -18 156q-19 51 -69.5 81t-125.5 30q-127 0 -209.5 -89t-82.5 -266v-588h-182z" />
<glyph unicode="i" horiz-adv-x="455" d="M137 1262v208h182v-208h-182zM137 0v1071h182v-1071h-182z" />
<glyph unicode="j" horiz-adv-x="455" d="M137 1262v208h182v-208h-182zM-33 -262h35q88 0 111.5 26t23.5 97v1210h182v-1221q0 -142 -66.5 -207t-214.5 -65q-36 0 -71 6v154z" />
<glyph unicode="k" horiz-adv-x="1024" d="M128 0v1470h173v-854l462 455h230l-410 -400l434 -671h-226l-338 540l-152 -137v-403h-173z" />
<glyph unicode="l" horiz-adv-x="455" d="M137 0v1470h182v-1470h-182z" />
<glyph unicode="m" horiz-adv-x="1706" d="M132 1071h182v-148q44 61 77 91q47 42 105.5 66t126.5 24q66 0 125.5 -22.5t96.5 -58.5t69 -100q72 98 145 139.5t172 41.5q94 0 166.5 -35t111 -83.5t51.5 -105.5t13 -167v-713h-187v751q0 92 -49.5 142t-136.5 50q-109 0 -183.5 -79.5t-74.5 -222.5v-641h-182v742 q0 105 -44.5 153t-127.5 48q-114 0 -194 -91t-80 -221v-631h-182v1071z" />
<glyph unicode="n" d="M134 1071h172v-151q40 55 74 84q55 48 123.5 74t151.5 26q101 0 174 -38t111.5 -89.5t51.5 -113.5q14 -62 14 -176v-687h-182v676q0 108 -20 157q-21 50 -72 80t-122 30q-73 0 -135 -30.5t-97.5 -84t-50.5 -118.5q-11 -44 -11 -122v-588h-182v1071z" />
<glyph unicode="o" d="M1067 536q0 -118 -30 -224q-23 -80 -64.5 -142.5t-101 -108.5t-137.5 -70t-164 -24q-149 0 -261 65.5t-174.5 195t-62.5 308.5q0 256 129.5 412t368.5 156q150 0 266 -69t173.5 -200.5t57.5 -298.5zM883 536q0 203 -89 305t-224 102q-136 0 -224.5 -102.5t-88.5 -304.5 q0 -203 88.5 -305.5t224.5 -102.5q135 0 224 102.5t89 305.5z" />
<glyph unicode="p" d="M126 -422v1493h182v-132q70 83 134 118q88 47 189 47q113 0 216.5 -61.5t160.5 -184.5t57 -325q0 -183 -54 -309t-160 -191.5t-240 -65.5q-83 0 -145 25t-109 69q-27 26 -49 67v-550h-182zM304 532q0 -209 81 -306.5t205 -97.5q126 0 208 97.5t82 306.5 q0 214 -81.5 312.5t-208.5 98.5q-124 0 -205 -98.5t-81 -312.5z" />
<glyph unicode="q" d="M835 922v149h172v-1498h-181v550q-51 -69 -114 -105q-88 -51 -206 -51q-189 0 -304 125q-140 152 -140 426q0 169 55.5 305.5t162 208.5t236.5 72q111 0 188 -48t131 -134zM247 520q0 -207 77.5 -299.5t207.5 -92.5q152 0 226.5 108.5t74.5 303.5q0 208 -81.5 305.5 t-212.5 97.5q-127 0 -209.5 -101t-82.5 -322z" />
<glyph unicode="r" horiz-adv-x="682" d="M137 0v1071h182v-177q47 107 123.5 158.5t156.5 51.5q24 0 59 -6v-190q-47 5 -66 5q-81 0 -150 -43t-102 -114q-21 -45 -21 -133v-8v-615h-182z" />
<glyph unicode="s" horiz-adv-x="1024" d="M244 338q5 -69 32 -116t88.5 -77t160.5 -30q129 0 192.5 51t63.5 121q0 57 -48 93t-156 62l-161 39q-179 43 -244 114t-65 179q0 86 47 165t139.5 122t215.5 43q193 0 299.5 -93.5t111.5 -242.5h-172q-10 92 -69.5 140t-179.5 48q-112 0 -166 -45.5t-54 -109.5 q0 -51 31 -83q46 -45 153 -70l207 -50q164 -39 223.5 -105.5t59.5 -168.5q0 -140 -105.5 -248.5t-329.5 -108.5q-151 0 -253 49.5t-151 143.5q-36 69 -42 178h172z" />
<glyph unicode="t" horiz-adv-x="569" d="M169 1071v299h181v-299h171v-147h-171v-699q0 -44 23 -65.5t80 -21.5q31 0 68 4v-143q-54 -16 -130 -16q-116 0 -169 53.5t-53 179.5v708h-145v147h145z" />
<glyph unicode="u" d="M138 1071h182v-711q0 -91 20 -136q20 -46 66.5 -71t117.5 -25q66 0 119.5 19.5t87.5 52.5q24 24 46 66.5t33 85.5t11 129v590h181v-1071h-171v158q-55 -94 -125 -136q-94 -55 -233 -55q-129 0 -204 48t-103 118.5t-28 208.5v729z" />
<glyph unicode="v" horiz-adv-x="1024" d="M17 1071h209l282 -872l303 872h197l-408 -1071h-192z" />
<glyph unicode="w" horiz-adv-x="1479" d="M28 1071h197l206 -841l209 841h201l211 -841l218 841h180l-310 -1071h-188l-218 830l-211 -830h-187z" />
<glyph unicode="x" horiz-adv-x="1024" d="M31 1071h232l254 -373l242 373h221l-354 -510l384 -561h-231l-279 414l-260 -414h-227l375 549z" />
<glyph unicode="y" horiz-adv-x="1024" d="M22 1071h203l287 -879l286 879h203l-410 -1114q-88 -240 -152 -317q-65 -77 -195 -77q-56 0 -124 15v166q58 -21 109 -21q47 0 79 23t52 74l59 151z" />
<glyph unicode="z" horiz-adv-x="1024" d="M64 0v142l635 768h-588v161h830v-147l-631 -763h650v-161h-896z" />
<glyph unicode="{" horiz-adv-x="684" d="M1 481v116q58 9 100.5 24t75.5 39t53 52.5t32 70.5q12 43 12 120v164q0 147 32.5 223t124.5 133.5t253 72.5v-114q-66 -9 -114 -32.5t-79.5 -65t-46.5 -108.5q-9 -45 -9 -131v-111q0 -109 -15 -172q-16 -64 -55 -112t-102 -78q-49 -23 -124 -33q79 -10 137.5 -39.5 t94 -77t51.5 -121.5q13 -56 13 -156v-112q0 -109 20 -173q21 -64 78.5 -107.5t150.5 -55.5v-114q-111 10 -194 43t-134 86q-37 38 -59 105q-23 68 -23 195v163q0 98 -23.5 154t-84 96.5t-165.5 55.5z" />
<glyph unicode="|" horiz-adv-x="532" d="M180 -512v2048h172v-2048h-172z" />
<glyph unicode="}" horiz-adv-x="684" d="M684 597v-116q-58 -8 -101 -23t-75.5 -39.5t-53 -53t-31.5 -70.5q-12 -43 -12 -120v-163q0 -147 -32.5 -223.5t-125 -133.5t-252.5 -72v114q65 8 113 32t80 65t46 108q10 45 10 131v112q0 108 15 171q15 64 54 112t103 78q49 23 124 33q-79 11 -138 40.5t-94 76.5 t-52 121q-12 57 -12 157v111q0 110 -20 174q-21 64 -78.5 107.5t-150.5 55.5v114q111 -10 193.5 -43t133.5 -86q38 -39 60 -106q23 -68 23 -194v-164q0 -98 23.5 -154t84 -96t165.5 -56z" />
<glyph unicode="~" horiz-adv-x="1196" d="M1077 725h116q-48 -216 -128 -295.5t-186 -79.5q-43 0 -91 11q-49 12 -131 44l-204 79q-80 30 -143 30q-49 0 -85 -20.5t-66 -70.5q-20 -34 -40 -103h-116q18 109 43 170.5t67.5 109.5t90.5 70t124 22q71 0 156 -33l223 -88q115 -45 186 -45q51 0 99 43.5t85 155.5z" />
<glyph horiz-adv-x="1251" d="M28 1298v172h1196v-172h-499v-1298h-197v1298h-500zM532 1568l-203 295h162l135 -196l135 196h162l-203 -295h-188z" />
<glyph unicode="&#x164;" horiz-adv-x="1251" d="M28 1298v172h1196v-172h-499v-1298h-197v1298h-500zM532 1568l-203 295h162l135 -196l135 196h162l-203 -295h-188z" />
<glyph horiz-adv-x="1251" d="M47 0v163l901 1135h-835v172h1091v-172l-906 -1125h906v-173h-1157zM548 1595l-203 295h162l135 -196l135 196h162l-203 -295h-188z" />
<glyph unicode="&#x17d;" horiz-adv-x="1251" d="M47 0v163l901 1135h-835v172h1091v-172l-906 -1125h906v-173h-1157zM548 1595l-203 295h162l135 -196l135 196h162l-203 -295h-188z" />
<glyph horiz-adv-x="1251" d="M47 0v163l901 1135h-835v172h1091v-172l-906 -1125h906v-173h-1157zM534 1568l182 295h224l-269 -295h-137z" />
<glyph unicode="&#x179;" horiz-adv-x="1251" d="M47 0v163l901 1135h-835v172h1091v-172l-906 -1125h906v-173h-1157zM534 1568l182 295h224l-269 -295h-137z" />
<glyph horiz-adv-x="679" d="M466 1135v71q53 12 77 43.5t23 89.5h-90v180h180v-180q0 -88 -51 -144.5t-139 -59.5zM169 1071v299h181v-299h171v-147h-171v-699q0 -44 23 -65.5t80 -21.5q31 0 68 4v-143q-54 -16 -130 -16q-116 0 -169 53.5t-53 179.5v708h-145v147h145z" />
<glyph unicode="&#x165;" horiz-adv-x="679" d="M466 1135v71q53 12 77 43.5t23 89.5h-90v180h180v-180q0 -88 -51 -144.5t-139 -59.5zM169 1071v299h181v-299h171v-147h-171v-699q0 -44 23 -65.5t80 -21.5q31 0 68 4v-143q-54 -16 -130 -16q-116 0 -169 53.5t-53 179.5v708h-145v147h145z" />
<glyph horiz-adv-x="1024" d="M64 0v142l635 768h-588v161h830v-147l-631 -763h650v-161h-896zM423 1225l-203 295h162l135 -196l135 196h162l-203 -295h-188z" />
<glyph unicode="&#x17e;" horiz-adv-x="1024" d="M64 0v142l635 768h-588v161h830v-147l-631 -763h650v-161h-896zM423 1225l-203 295h162l135 -196l135 196h162l-203 -295h-188z" />
<glyph unicode="&#xa1;" horiz-adv-x="682" d="M247 1212l-203 295h162l135 -196l135 196h162l-203 -295h-188z" />
<glyph unicode="&#xa2;" horiz-adv-x="682" d="M126 1507q14 -52 33 -80q26 -38 69 -58.5t109 -20.5q97 0 148 38t71 121h101q-18 -137 -100 -209.5t-215 -72.5t-215 72t-101 210h100z" />
<glyph unicode="&#xa3;" d="M-6 495v139l154 96v740h199v-622l322 197v-138l-322 -197v-535h745v-175h-944v592z" />
<glyph unicode="&#xa4;" d="M225 960l-140 135l95 95l137 -138q43 36 110 60.5t138 24.5q76 0 145.5 -24.5t111.5 -62.5l138 140l95 -95l-140 -140q40 -45 65 -113.5t25 -143.5t-26.5 -141.5t-63.5 -103.5l140 -138l-95 -95l-138 136q-41 -36 -109.5 -61t-142.5 -25q-73 0 -138.5 25t-114.5 63 l-137 -140l-95 97l140 138q-34 39 -60 105.5t-26 140.5q0 76 24.5 145.5t61.5 115.5zM277 704q0 -75 37.5 -144t108 -108.5t147.5 -39.5q122 0 207.5 85.5t85.5 207.5q0 76 -39 146t-108 108.5t-146 38.5q-78 0 -148 -39.5t-107.5 -109t-37.5 -145.5z" />
<glyph unicode="&#xa5;" horiz-adv-x="1366" d="M239 0h-211l553 1470h225l533 -1470h-62q-117 -84 -117 -159q0 -40 28.5 -66.5t78.5 -26.5q53 0 103 29v-116q-78 -36 -155 -36q-87 0 -141 52.5t-54 131.5q0 109 107 192l-157 443h-573zM915 604l-232 651l-231 -651h463z" />
<glyph unicode="&#xa6;" horiz-adv-x="532" d="M352 768h-171v512h171v-512zM352 256v-512h-171v512h171z" />
<glyph unicode="&#xa7;" d="M168 -10h184q8 -120 62 -174t150 -54q97 0 148.5 47t51.5 120q0 50 -23 87q-24 37 -98 86l-395 265q-88 58 -124 121t-36 151q0 104 47.5 176.5t161.5 138.5q-57 60 -79 109t-22 105q0 86 46 168t132 126.5t197 44.5q74 0 138.5 -20t110.5 -57t73.5 -84.5t39.5 -103.5 q10 -41 11 -109h-172q-7 122 -58 174.5t-143 52.5q-97 0 -150 -64q-40 -49 -40 -107q0 -39 19.5 -72t64.5 -70q46 -37 136 -88l189 -106q146 -83 203.5 -170t57.5 -189q0 -98 -47.5 -173t-161.5 -151q61 -67 83.5 -118t22.5 -113q0 -142 -105.5 -239t-284.5 -97 q-114 0 -202.5 43t-134.5 127.5t-53 216.5zM741 252q137 84 137 208q0 120 -122 195l-357 219q-72 -38 -105.5 -85t-33.5 -112q0 -56 25.5 -101.5t68.5 -73.5z" />
<glyph unicode="&#xa8;" horiz-adv-x="682" d="M85 1262v208h184v-208h-184zM413 1262v208h184v-208h-184z" />
<glyph unicode="&#xa9;" horiz-adv-x="1509" d="M1488 737q0 -144 -55 -279t-151.5 -233t-211.5 -153q-149 -72 -317 -72q-127 0 -238.5 39.5t-196 103t-153 152t-108 204.5t-39.5 238q0 126 39.5 237.5t102.5 195.5t151 152q88 69 204 108.5t238 39.5q164 0 298.5 -63t226 -157t141.5 -203q69 -150 69 -310zM753 1370 q-139 0 -267 -59q-93 -43 -173 -122t-134 -195t-54 -257q0 -166 83.5 -317t232 -234.5t312.5 -83.5t312 83.5t232 234.5t84 317q0 145 -62 274q-47 99 -130 182t-197.5 130t-238.5 47zM992 595h121q-23 -134 -114 -209.5t-232 -75.5q-119 0 -208 55.5t-137.5 156.5 t-48.5 221q0 122 50.5 222t139 153t199.5 53q82 0 149.5 -27.5t108 -68t61 -87t27.5 -116.5h-120q-11 82 -69.5 133.5t-146.5 51.5q-113 0 -184.5 -81.5t-71.5 -237.5q0 -152 72.5 -233t184.5 -81q86 0 138.5 39.5t80.5 131.5z" />
<glyph unicode="&#xaa;" horiz-adv-x="1366" d="M1040 1038q-12 140 -103.5 217.5t-263.5 77.5q-115 0 -191.5 -31.5t-112.5 -89t-36 -121.5q0 -76 49.5 -126.5t200.5 -87.5l293 -72q229 -56 310 -154t81 -246q0 -127 -59.5 -223.5t-177.5 -150.5q-145 -68 -350 -68q-203 0 -339 73.5t-198 209.5q-43 94 -43 225v6h184 q3 -71 17 -114q21 -63 67.5 -111t125.5 -81.5t194 -33.5q141 0 239 45q72 32 106.5 85t34.5 120q0 103 -65.5 154.5t-216.5 89.5l-262 65q-210 53 -292.5 145t-82.5 229q0 125 63 227.5t183.5 156t281.5 53.5q167 0 295 -58.5t188 -160.5t64 -250h-184zM588 -462v71 q53 12 77 43.5t23 89.5h-91v180h181v-180q0 -89 -51 -145t-139 -59z" />
<glyph unicode="&#xab;" d="M199 477v189l322 249v-178l-211 -166l211 -165v-179zM619 477v189l321 249v-178l-211 -166l211 -165v-179z" />
<glyph unicode="&#xac;" horiz-adv-x="1196" d="M77 823h1043v-600h-168v431h-875v169z" />
<glyph unicode="&#xad;" horiz-adv-x="682" d="M90 479v185h502v-185h-502z" />
<glyph unicode="&#xae;" horiz-adv-x="1509" d="M1488 737q0 -144 -54.5 -279t-151.5 -233t-212 -153q-149 -72 -316 -72q-159 0 -292.5 60.5t-224.5 153.5t-143 203q-73 151 -73 320q0 126 39 237t102 195q63 85 150 153q88 69 203.5 108.5t238.5 39.5q163 0 297.5 -63t226.5 -157t142 -203q68 -150 68 -310zM753 1370 q-137 0 -266 -59q-94 -43 -175 -122t-135 -195t-54 -257q0 -166 84 -316.5t233 -234.5t313 -84q165 0 314 84t233 234.5t84 316.5q0 145 -62 274q-47 98 -130.5 181.5t-198.5 130.5t-240 47zM599 337h-142v806h282q102 0 148 -9q65 -11 106 -37.5t66.5 -74.5t25.5 -106 t-25 -105t-64 -69t-107 -31q65 -12 107.5 -43.5t58.5 -74.5q16 -44 19 -126q4 -83 16 -130h-143q-6 28 -7 99q-2 71 -13 106t-37.5 62.5t-60 38.5t-118.5 11h-112v-317zM599 754h128q127 0 173 38.5t46 115.5q0 49 -24 81.5t-65 43.5q-42 12 -137 12h-121v-291z" />
<glyph unicode="&#xaf;" horiz-adv-x="1251" d="M47 0v163l901 1135h-835v172h1091v-172l-906 -1125h906v-173h-1157zM582 1617v208h184v-208h-184z" />
<glyph unicode="&#xb0;" horiz-adv-x="819" d="M411 1432q77 0 148 -38.5t111.5 -110.5t40.5 -152q0 -126 -88.5 -215t-214.5 -89q-79 0 -150.5 40t-111 111.5t-39.5 149.5q0 80 41 153t113 112t150 39zM409 936q80 0 136.5 57t56.5 137q0 79 -56.5 135.5t-136.5 56.5q-79 0 -136 -56.5t-57 -135.5q0 -80 57 -137 t136 -57z" />
<glyph unicode="&#xb1;" horiz-adv-x="1124" d="M477 557h-436v159h436v329h171v-329h436v-159h-436v-318h-171v318zM41 161h1043v-161h-1043v161z" />
<glyph unicode="&#xb2;" horiz-adv-x="682" d="M453 52h158q-123 -66 -165.5 -114t-42.5 -100q0 -22 12.5 -43.5t38.5 -34t54 -12.5q62 0 137 46v-119q-97 -50 -186 -50q-88 0 -142 52.5t-54 131.5q0 74 46.5 133t143.5 110z" />
<glyph unicode="&#xb3;" horiz-adv-x="455" d="M136 738v732h182v-619l148 92v-120l-148 -92v-731h-182v618l-148 -92v120z" />
<glyph unicode="&#xb4;" horiz-adv-x="682" d="M202 1212l182 295h224l-269 -295h-137z" />
<glyph unicode="&#xb5;" horiz-adv-x="1180" d="M282 1069h185l-162 -745q-9 -45 -9 -73q0 -57 37.5 -90t118.5 -33q87 0 166 51.5t134.5 139t72.5 165.5l128 585h182l-230 -1069h-173l43 180q-27 -45 -90.5 -99.5t-130.5 -81t-131 -26.5q-57 0 -104.5 20.5t-74.5 59.5l-102 -475h-185z" />
<glyph unicode="&#xb6;" horiz-adv-x="1100" d="M544 1353v-1716h-157v889q-98 6 -153 23q-82 25 -151 84.5t-108 156t-39 198.5q0 115 41.5 210t102.5 150t156 88.5t225 33.5h632v-117h-146v-1716h-157v1716h-246z" />
<glyph unicode="&#xb8;" horiz-adv-x="682" d="M180 -187l132 178h96l-96 -128q38 5 64 5q84 0 129 -42t45 -109q0 -49 -27.5 -93.5t-83.5 -69t-132 -24.5q-45 0 -89 9q-44 10 -109 34l36 81q84 -31 131 -31q60 0 88.5 24t28.5 62q0 34 -26 57t-71 23q-33 0 -80 -17z" />
<glyph unicode="&#xb9;" d="M985 -14q-96 -70 -96 -148q0 -37 28.5 -63.5t78.5 -26.5q53 0 102 29v-116q-78 -36 -155 -36q-86 0 -140 52.5t-54 131.5q0 60 29.5 108t93.5 95q-29 20 -44 48.5t-20 80.5q-82 -87 -171.5 -130.5t-208.5 -43.5q-157 0 -249 88t-92 226q0 80 30 144t84 107q32 27 88.5 50 t119.5 30l290 36q36 4 51 12q23 13 37.5 39.5t14.5 72.5q0 88 -56 136t-188 48q-123 0 -182.5 -51t-69.5 -155h-172q6 91 30.5 151t73.5 104.5t132 71.5t196 27q111 0 192 -23t129 -65t70 -95.5t22 -121.5v-596q0 -47 15 -64q16 -18 44 -18q21 0 60 8v-129 q-40 -9 -59.5 -11.5t-53.5 -2.5zM798 545q-28 -19 -59 -28q-46 -13 -175 -31q-95 -13 -126 -21q-60 -15 -96 -38.5t-53 -54.5t-17 -76q0 -81 52.5 -131.5t149.5 -50.5q120 0 222 71.5t102 187.5v172z" />
<glyph unicode="&#xba;" horiz-adv-x="1024" d="M244 338q5 -69 32 -116t88.5 -77t160.5 -30q129 0 192.5 51t63.5 121q0 57 -48 93t-156 62l-161 39q-179 43 -244 114t-65 179q0 86 47 165t139.5 122t215.5 43q193 0 299.5 -93.5t111.5 -242.5h-172q-10 92 -69.5 140t-179.5 48q-112 0 -166 -45.5t-54 -109.5 q0 -51 31 -83q46 -45 153 -70l207 -50q164 -39 223.5 -105.5t59.5 -168.5q0 -140 -105.5 -248.5t-329.5 -108.5q-151 0 -253 49.5t-151 143.5q-36 69 -42 178h172zM413 -463v71q53 12 77 43.5t23 89.5h-91v180h181v-180q0 -89 -51 -145t-139 -59z" />
<glyph unicode="&#xbb;" d="M619 227v179l211 165l-211 166v178l321 -249v-189zM199 227v179l211 165l-211 166v178l322 -249v-189z" />
<glyph unicode="&#xbc;" d="M575 1087v71q53 12 77 43.5t23 89.5h-91v180h181v-180q0 -89 -51 -145.5t-139 -58.5zM152 0v1470h197v-1297h746v-173h-943z" />
<glyph unicode="&#xbd;" horiz-adv-x="682" d="M91 1212l109 295h183l-192 -295h-100zM371 1212l109 295h182l-192 -295h-99z" />
<glyph unicode="&#xbe;" horiz-adv-x="685" d="M452 1087v71q53 12 77 43.5t23 88.5h-91v181h181v-181q0 -88 -51 -144.5t-139 -58.5zM138 0v1470h182v-1470h-182z" />
<glyph unicode="&#xbf;" horiz-adv-x="1024" d="M64 0v142l635 768h-588v161h830v-147l-631 -763h650v-161h-896zM432 1261v208h184v-208h-184z" />
<glyph unicode="&#xc0;" horiz-adv-x="1479" d="M181 0v1470h671q170 0 272 -42q103 -42 161 -135t58 -216q0 -140 -55 -223.5t-152 -130.5q88 -32 131 -94t47 -183l7 -197q4 -90 8 -115q7 -34 23 -58.5t48 -42.5v-33h-245q-12 36 -16 64q-7 37 -10 102l-10 225q-5 96 -30 143t-81 72t-177 25h-453v-631h-197zM378 796 h439q126 0 177 17q74 24 107 72q43 64 43 167q0 135 -88 201q-60 45 -196 45h-482v-502zM583 1568l182 295h224l-269 -295h-137z" />
<glyph unicode="&#xc1;" horiz-adv-x="1366" d="M1128 0l-158 444h-573l-158 -444h-211l553 1470h225l533 -1470h-211zM915 604l-232 651l-231 -651h463zM563 1595l182 295h224l-269 -295h-137z" />
<glyph unicode="&#xc2;" horiz-adv-x="1366" d="M1128 0l-158 444h-573l-158 -444h-211l553 1470h225l533 -1470h-211zM915 604l-232 651l-231 -651h463zM604 1890h189l204 -295h-163l-135 198l-135 -198h-164z" />
<glyph unicode="&#xc3;" horiz-adv-x="1366" d="M1128 0l-158 444h-573l-158 -444h-211l553 1470h225l533 -1470h-211zM915 604l-232 651l-231 -651h463zM468 1862q14 -52 33 -80q26 -38 69 -58.5t109 -20.5q97 0 148 38t71 121h101q-18 -137 -100 -209.5t-215 -72.5t-215 72t-101 210h100z" />
<glyph unicode="&#xc4;" horiz-adv-x="1366" d="M1128 0l-158 444h-573l-158 -444h-211l553 1470h225l533 -1470h-211zM915 604l-232 651l-231 -651h463zM442 1619v208h184v-208h-184zM770 1619v208h184v-208h-184z" />
<glyph unicode="&#xc5;" d="M152 0v1470h197v-1297h746v-173h-943zM181 1568l182 295h224l-269 -295h-137z" />
<glyph unicode="&#xc6;" horiz-adv-x="1479" d="M1176 1034q-27 88 -67 142q-54 73 -140 115t-196 42q-144 0 -254.5 -69.5t-175 -205t-64.5 -326.5q0 -283 138.5 -439t337.5 -156q164 0 283 104.5t150 284.5h190q-18 -136 -70.5 -236t-135.5 -174t-185.5 -113.5t-239.5 -39.5q-175 0 -297 62t-199.5 156t-116.5 205 q-54 154 -54 336q0 234 83 416.5t242.5 275.5t362.5 93q164 0 301.5 -62.5t220.5 -188.5q59 -91 78 -222h-192zM625 1592l182 295h224l-269 -295h-137z" />
<glyph unicode="&#xc7;" horiz-adv-x="1479" d="M804 -35l-77 -102q38 5 64 5q84 0 129.5 -42t45.5 -109q0 -49 -27.5 -93.5t-83.5 -69t-133 -24.5q-44 0 -88 9q-45 10 -110 34l36 81q84 -31 132 -31q59 0 88 24t29 62q0 34 -26.5 57t-71.5 23q-33 0 -80 -17l-36 41l112 151q-187 9 -338 109t-226 289q-63 159 -63 360 q0 234 83 416.5t242.5 275.5t362.5 93q164 0 301.5 -62.5t220.5 -188.5q59 -91 78 -222h-192q-27 88 -67 142q-54 73 -140 115t-196 42q-144 0 -254.5 -69.5t-175 -205t-64.5 -326.5q0 -283 138.5 -439t337.5 -156q164 0 283 104.5t150 284.5h190q-18 -136 -70 -234 q-75 -144 -206.5 -230t-297.5 -97z" />
<glyph unicode="&#xc8;" horiz-adv-x="1479" d="M1176 1034q-27 88 -67 142q-54 73 -140 115t-196 42q-144 0 -254.5 -69.5t-175 -205t-64.5 -326.5q0 -283 138.5 -439t337.5 -156q164 0 283 104.5t150 284.5h190q-18 -136 -70.5 -236t-135.5 -174t-185.5 -113.5t-239.5 -39.5q-175 0 -297 62t-199.5 156t-116.5 205 q-54 154 -54 336q0 234 83 416.5t242.5 275.5t362.5 93q164 0 301.5 -62.5t220.5 -188.5q59 -91 78 -222h-192zM665 1592l-203 295h162l135 -196l135 196h162l-203 -295h-188z" />
<glyph unicode="&#xc9;" horiz-adv-x="1366" d="M152 0v1470h1073v-172h-876v-454h809v-172h-809v-499h890v-173h-1087zM579 1595l182 295h224l-269 -295h-137z" />
<glyph unicode="&#xca;" horiz-adv-x="1366" d="M1239 173v-173h-123q-117 -77 -117 -162q0 -22 12.5 -43.5t38.5 -34t54 -12.5q62 0 136 46v-119q-96 -50 -185 -50q-88 0 -142 52.5t-54 131.5q0 53 23 96t83 95h-813v1470h1073v-172h-876v-454h809v-172h-809v-499h890z" />
<glyph unicode="&#xcb;" horiz-adv-x="1366" d="M152 0v1470h1073v-172h-876v-454h809v-172h-809v-499h890v-173h-1087zM458 1619v208h184v-208h-184zM786 1619v208h184v-208h-184z" />
<glyph unicode="&#xcc;" horiz-adv-x="1366" d="M152 0v1470h1073v-172h-876v-454h809v-172h-809v-499h890v-173h-1087zM609 1568l-203 295h162l135 -196l135 196h162l-203 -295h-188z" />
<glyph unicode="&#xcd;" horiz-adv-x="569" d="M186 0v1470h197v-1470h-197zM162 1595l182 295h224l-269 -295h-137z" />
<glyph unicode="&#xce;" horiz-adv-x="569" d="M186 0v1470h197v-1470h-197zM207 1890h189l204 -295h-163l-135 198l-135 -198h-164z" />
<glyph unicode="&#xcf;" horiz-adv-x="1479" d="M152 0v1470h576q141 0 249 -38.5t201.5 -137t139 -232t45.5 -306.5q0 -199 -61 -357.5t-158 -253.5q-74 -71 -201 -115q-88 -30 -222 -30h-569zM349 173h347q84 0 143 14q59 15 116.5 48t94.5 83q50 67 82 177t32 248q0 146 -34.5 254.5t-94 174t-139.5 96t-200 30.5 h-347v-1125zM520 1568l-203 295h162l135 -196l135 196h162l-203 -295h-188z" />
<glyph unicode="&#xd0;" horiz-adv-x="1479" d="M152 715h-133v122h133v633h576q141 0 249 -38.5t201.5 -137t139 -232t45.5 -306.5q0 -199 -61 -357.5t-158 -253.5q-74 -71 -201 -115q-88 -30 -222 -30h-569v715zM349 715v-542h347q84 0 142 14q59 15 116.5 48t95.5 83q50 67 82 177t32 248q0 146 -34.5 254.5t-94 174 t-139.5 96t-200 30.5h-347v-461h421v-122h-421z" />
<glyph unicode="&#xd1;" horiz-adv-x="1479" d="M156 0v1470h235l742 -1190v1190h189v-1470h-223l-753 1190v-1190h-190zM600 1568l182 295h224l-269 -295h-137z" />
<glyph unicode="&#xd2;" horiz-adv-x="1479" d="M156 0v1470h235l742 -1190v1190h189v-1470h-223l-753 1190v-1190h-190zM645 1568l-203 295h162l135 -196l135 196h162l-203 -295h-188z" />
<glyph unicode="&#xd3;" horiz-adv-x="1593" d="M1514 744q0 -181 -60 -339q-75 -199 -245.5 -320.5t-421.5 -121.5q-211 0 -369.5 89t-248 263.5t-89.5 415.5q0 174 49 319.5t145 248t228 155.5t295 53q162 0 293 -52.5t221.5 -148t138.5 -215.5q64 -160 64 -347zM1314 729q0 289 -145 446.5t-372 157.5 q-248 0 -383 -169t-135 -435q0 -192 67 -329t182 -200t269 -63q173 0 292.5 78t172 215t52.5 299zM679 1594l182 295h224l-269 -295h-137z" />
<glyph unicode="&#xd4;" horiz-adv-x="1593" d="M1514 744q0 -181 -60 -339q-75 -199 -245.5 -320.5t-421.5 -121.5q-211 0 -369.5 89t-248 263.5t-89.5 415.5q0 174 49 319.5t145 248t228 155.5t295 53q162 0 293 -52.5t221.5 -148t138.5 -215.5q64 -160 64 -347zM1314 729q0 289 -145 446.5t-372 157.5 q-248 0 -383 -169t-135 -435q0 -192 67 -329t182 -200t269 -63q173 0 292.5 78t172 215t52.5 299zM719 1889h189l204 -295h-163l-135 198l-135 -198h-164z" />
<glyph unicode="&#xd5;" horiz-adv-x="1593" d="M1514 744q0 -181 -60 -339q-75 -199 -245.5 -320.5t-421.5 -121.5q-211 0 -369.5 89t-248 263.5t-89.5 415.5q0 174 49 319.5t145 248t228 155.5t295 53q162 0 293 -52.5t221.5 -148t138.5 -215.5q64 -160 64 -347zM1314 729q0 289 -145 446.5t-372 157.5 q-248 0 -383 -169t-135 -435q0 -192 67 -329t182 -200t269 -63q173 0 292.5 78t172 215t52.5 299zM588 1568l109 295h183l-192 -295h-100zM868 1568l109 295h182l-192 -295h-99z" />
<glyph unicode="&#xd6;" horiz-adv-x="1593" d="M1514 744q0 -181 -60 -339q-75 -199 -245.5 -320.5t-421.5 -121.5q-211 0 -369.5 89t-248 263.5t-89.5 415.5q0 174 49 319.5t145 248t228 155.5t295 53q162 0 293 -52.5t221.5 -148t138.5 -215.5q64 -160 64 -347zM1314 729q0 289 -145 446.5t-372 157.5 q-248 0 -383 -169t-135 -435q0 -192 67 -329t182 -200t269 -63q173 0 292.5 78t172 215t52.5 299zM557 1617v208h184v-208h-184zM885 1617v208h184v-208h-184z" />
<glyph unicode="&#xd7;" horiz-adv-x="1196" d="M479 523l-380 379l119 119l379 -379l381 381l120 -120l-380 -380l379 -379l-120 -121l-380 379l-377 -378l-120 120z" />
<glyph unicode="&#xd8;" horiz-adv-x="1479" d="M181 0v1470h671q170 0 272 -42q103 -42 161 -135t58 -216q0 -140 -55 -223.5t-152 -130.5q88 -32 131 -94t47 -183l7 -197q4 -90 8 -115q7 -34 23 -58.5t48 -42.5v-33h-245q-12 36 -16 64q-7 37 -10 102l-10 225q-5 96 -30 143t-81 72t-177 25h-453v-631h-197zM378 796 h439q126 0 177 17q74 24 107 72q43 64 43 167q0 135 -88 201q-60 45 -196 45h-482v-502zM646 1568l-203 295h162l135 -196l135 196h162l-203 -295h-188z" />
<glyph unicode="&#xd9;" horiz-adv-x="1479" d="M161 1470h197v-908q0 -166 33.5 -246t121.5 -129.5t223 -49.5q192 0 288.5 100.5t96.5 324.5v908h197v-892q0 -200 -60.5 -331.5t-198 -207.5t-336.5 -76q-128 0 -224 29.5t-159.5 81.5t-102.5 115q-28 47 -52 135q-24 89 -24 254v892zM925 1713q0 -77 -56.5 -132 t-137.5 -55q-83 0 -140.5 56.5t-57.5 135.5t57 135.5t138 56.5q82 0 139.5 -57.5t57.5 -139.5zM839 1718q0 46 -32.5 78.5t-78.5 32.5t-79 -32.5t-33 -78.5q0 -47 33 -79.5t79 -32.5t78.5 32.5t32.5 79.5z" />
<glyph unicode="&#xda;" horiz-adv-x="1479" d="M161 1470h197v-908q0 -166 33.5 -246t121.5 -129.5t223 -49.5q192 0 288.5 100.5t96.5 324.5v908h197v-892q0 -200 -60.5 -331.5t-198 -207.5t-336.5 -76q-128 0 -224 29.5t-159.5 81.5t-102.5 115q-28 47 -52 135q-24 89 -24 254v892zM601 1595l182 295h224l-269 -295 h-137z" />
<glyph unicode="&#xdb;" horiz-adv-x="1479" d="M161 1470h197v-908q0 -166 33.5 -246t121.5 -129.5t223 -49.5q192 0 288.5 100.5t96.5 324.5v908h197v-892q0 -200 -60.5 -331.5t-198 -207.5t-336.5 -76q-128 0 -224 29.5t-159.5 81.5t-102.5 115q-28 47 -52 135q-24 89 -24 254v892zM541 1568l109 295h183l-192 -295 h-100zM821 1568l109 295h182l-192 -295h-99z" />
<glyph unicode="&#xdc;" horiz-adv-x="1479" d="M161 1470h197v-908q0 -166 33.5 -246t121.5 -129.5t223 -49.5q192 0 288.5 100.5t96.5 324.5v908h197v-892q0 -200 -60.5 -331.5t-198 -207.5t-336.5 -76q-128 0 -224 29.5t-159.5 81.5t-102.5 115q-28 47 -52 135q-24 89 -24 254v892zM481 1619v208h184v-208h-184z M809 1619v208h184v-208h-184z" />
<glyph unicode="&#xdd;" horiz-adv-x="1366" d="M585 593l-555 877h237l418 -698l419 698h232l-554 -877v-593h-197v593zM552 1595l182 295h224l-269 -295h-137z" />
<glyph unicode="&#xde;" horiz-adv-x="1251" d="M28 1298v172h1196v-172h-499v-1298h-197v1298h-500zM531 -462v71q53 12 77 43.5t23 89.5h-91v180h181v-180q0 -89 -51 -145t-139 -59z" />
<glyph unicode="&#xdf;" horiz-adv-x="1251" d="M199 0v1090q0 190 115.5 295.5t310.5 105.5q193 0 302 -103t109 -266q0 -80 -25 -142.5t-67 -105.5q-25 -26 -74 -54q72 -27 111 -60q59 -48 92.5 -123t33.5 -186q0 -240 -153 -372q-126 -108 -309 -108q-47 0 -100 10v156q52 -5 89 -5q131 0 209.5 80t78.5 220 q0 141 -75.5 217.5t-201.5 76.5q-36 0 -90 -8v161q28 -6 58 -6q113 0 179 64.5t66 167.5q0 105 -63 167.5t-172 62.5q-77 0 -136 -34.5t-82.5 -93.5t-23.5 -183v-1024h-182z" />
<glyph unicode="&#xe0;" horiz-adv-x="682" d="M137 0v1071h182v-177q47 107 123.5 158.5t156.5 51.5q24 0 59 -6v-190q-47 5 -66 5q-81 0 -150 -43t-102 -114q-21 -45 -21 -133v-8v-615h-182zM243 1213l182 295h224l-269 -295h-137z" />
<glyph unicode="&#xe1;" d="M134 750q6 91 30.5 151t73.5 104.5t132 71.5t196 27q111 0 192 -23t129 -65t70 -95.5t22 -121.5v-596q0 -47 15.5 -64.5t43.5 -17.5q21 0 60 8v-129q-60 -14 -104 -14q-93 0 -135.5 36.5t-50.5 118.5q-82 -87 -171.5 -130.5t-208.5 -43.5q-157 0 -249 88t-92 226 q0 80 30 144t84 107q32 27 88.5 50t119.5 30l290 36q55 7 79 35.5t24 87.5q0 89 -56 137t-188 48q-123 0 -182.5 -51t-69.5 -155h-172zM798 545q-28 -19 -59 -28q-46 -13 -175 -31q-95 -13 -126 -21q-60 -15 -96 -38.5t-53 -54.5t-17 -76q0 -81 52.5 -131.5t148.5 -50.5 q122 0 223.5 71.5t101.5 187.5v172zM432 1232l182 295h224l-269 -295h-137z" />
<glyph unicode="&#xe2;" d="M134 750q6 91 30.5 151t73.5 104.5t132 71.5t196 27q111 0 192 -23t129 -65t70 -95.5t22 -121.5v-596q0 -47 15.5 -64.5t43.5 -17.5q21 0 60 8v-129q-60 -14 -104 -14q-93 0 -135.5 36.5t-50.5 118.5q-82 -87 -171.5 -130.5t-208.5 -43.5q-157 0 -249 88t-92 226 q0 80 30 144t84 107q32 27 88.5 50t119.5 30l290 36q55 7 79 35.5t24 87.5q0 89 -56 137t-188 48q-123 0 -182.5 -51t-69.5 -155h-172zM798 545q-28 -19 -59 -28q-46 -13 -175 -31q-95 -13 -126 -21q-60 -15 -96 -38.5t-53 -54.5t-17 -76q0 -81 52.5 -131.5t148.5 -50.5 q122 0 223.5 71.5t101.5 187.5v172zM472 1527h189l204 -295h-163l-135 198l-135 -198h-164z" />
<glyph unicode="&#xe3;" d="M134 750q6 91 30.5 151t73.5 104.5t132 71.5t196 27q111 0 192 -23t129 -65t70 -95.5t22 -121.5v-596q0 -47 15.5 -64.5t43.5 -17.5q21 0 60 8v-129q-60 -14 -104 -14q-93 0 -135.5 36.5t-50.5 118.5q-82 -87 -171.5 -130.5t-208.5 -43.5q-157 0 -249 88t-92 226 q0 80 30 144t84 107q32 27 88.5 50t119.5 30l290 36q55 7 79 35.5t24 87.5q0 89 -56 137t-188 48q-123 0 -182.5 -51t-69.5 -155h-172zM798 545q-28 -19 -59 -28q-46 -13 -175 -31q-95 -13 -126 -21q-60 -15 -96 -38.5t-53 -54.5t-17 -76q0 -81 52.5 -131.5t148.5 -50.5 q122 0 223.5 71.5t101.5 187.5v172zM354 1507q14 -52 33 -80q26 -38 69 -58.5t109 -20.5q97 0 148 38t71 121h101q-18 -137 -100 -209.5t-215 -72.5t-215 72t-101 210h100z" />
<glyph unicode="&#xe4;" d="M134 750q6 91 30.5 151t73.5 104.5t132 71.5t196 27q111 0 192 -23t129 -65t70 -95.5t22 -121.5v-596q0 -47 15.5 -64.5t43.5 -17.5q21 0 60 8v-129q-60 -14 -104 -14q-93 0 -135.5 36.5t-50.5 118.5q-82 -87 -171.5 -130.5t-208.5 -43.5q-157 0 -249 88t-92 226 q0 80 30 144t84 107q32 27 88.5 50t119.5 30l290 36q55 7 79 35.5t24 87.5q0 89 -56 137t-188 48q-123 0 -182.5 -51t-69.5 -155h-172zM798 545q-28 -19 -59 -28q-46 -13 -175 -31q-95 -13 -126 -21q-60 -15 -96 -38.5t-53 -54.5t-17 -76q0 -81 52.5 -131.5t148.5 -50.5 q122 0 223.5 71.5t101.5 187.5v172zM311 1256v208h184v-208h-184zM639 1256v208h184v-208h-184z" />
<glyph unicode="&#xe5;" horiz-adv-x="455" d="M137 0v1470h182v-1470h-182zM123 1568l182 295h224l-269 -295h-137z" />
<glyph unicode="&#xe6;" horiz-adv-x="1024" d="M977 375q-24 -195 -143 -301.5t-308 -106.5q-112 0 -192.5 37t-133 100t-81.5 137q-47 123 -47 276q0 159 53 293.5t164.5 214t267.5 79.5q181 0 292 -103t128 -294h-172q-16 110 -75.5 173t-171.5 63q-131 0 -216 -103.5t-85 -330.5q0 -168 59 -262q75 -119 219 -119 q104 0 175.5 62t94.5 185h172zM414 1228l182 295h224l-269 -295h-137z" />
<glyph unicode="&#xe7;" horiz-adv-x="1024" d="M570 -31l-80 -106q38 5 64 5q84 0 129 -42t45 -109q0 -49 -27.5 -93.5t-83.5 -69t-132 -24.5q-45 0 -89 9q-44 10 -109 34l36 81q84 -31 131 -31q60 0 89 24t29 62q0 34 -26.5 57t-71.5 23q-33 0 -80 -17l-36 41l116 157q-125 13 -214.5 78t-138.5 189.5t-49 279.5 q0 159 53 293.5t164.5 214t267.5 79.5q181 0 292 -103t128 -294h-172q-16 110 -75.5 173t-171.5 63q-131 0 -216 -103.5t-85 -330.5q0 -168 59 -262q75 -119 219 -119q104 0 175.5 62t94.5 185h172q-22 -184 -127.5 -287t-279.5 -119z" />
<glyph unicode="&#xe8;" horiz-adv-x="1024" d="M977 375q-24 -195 -143 -301.5t-308 -106.5q-112 0 -192.5 37t-133 100t-81.5 137q-47 123 -47 276q0 159 53 293.5t164.5 214t267.5 79.5q181 0 292 -103t128 -294h-172q-16 110 -75.5 173t-171.5 63q-131 0 -216 -103.5t-85 -330.5q0 -168 59 -262q75 -119 219 -119 q104 0 175.5 62t94.5 185h172zM455 1228l-203 295h162l135 -196l135 196h162l-203 -295h-188z" />
<glyph unicode="&#xe9;" d="M1047 342q-29 -113 -73 -178q-61 -87 -164.5 -142t-234.5 -55q-147 0 -263 69.5t-174 200t-58 291.5q0 267 144.5 421.5t356.5 154.5q117 0 220 -47.5t163 -133t83 -203.5q12 -67 12 -224v-25h-782q3 -102 36.5 -180t103.5 -120.5t160 -42.5q109 0 178 49t114 165h178z M875 618q-7 162 -86.5 243.5t-205.5 81.5q-122 0 -207.5 -84.5t-98.5 -240.5h598zM452 1234l182 295h224l-269 -295h-137z" />
<glyph unicode="&#xea;" d="M931 -206v-119q-97 -50 -186 -50q-88 0 -142 52.5t-54 131.5q0 87 70 160q-21 -2 -40 -2q-145 0 -259.5 64.5t-177 196.5t-62.5 300q0 267 144.5 421.5t356.5 154.5q117 0 220 -47.5t163 -133t83 -203.5q13 -72 12 -249h-782q3 -102 36.5 -180t103.5 -120.5t160 -42.5 q109 0 178 49t114 165h178q-28 -111 -73.5 -178t-139 -135.5t-119.5 -107.5t-26 -80q0 -40 28.5 -66.5t76.5 -26.5q62 0 137 46zM875 618q-7 162 -86.5 243.5t-205.5 81.5q-122 0 -207.5 -84.5t-98.5 -240.5h598z" />
<glyph unicode="&#xeb;" d="M1047 342q-29 -113 -73 -178q-61 -87 -164.5 -142t-234.5 -55q-147 0 -263 69.5t-174 200t-58 291.5q0 267 144.5 421.5t356.5 154.5q117 0 220 -47.5t163 -133t83 -203.5q12 -67 12 -224v-25h-782q3 -102 36.5 -180t103.5 -120.5t160 -42.5q109 0 178 49t114 165h178z M875 618q-7 162 -86.5 243.5t-205.5 81.5q-122 0 -207.5 -84.5t-98.5 -240.5h598zM330 1258v208h184v-208h-184zM658 1258v208h184v-208h-184z" />
<glyph unicode="&#xec;" d="M1047 342q-29 -113 -73 -178q-61 -87 -164.5 -142t-234.5 -55q-147 0 -263 69.5t-174 200t-58 291.5q0 267 144.5 421.5t356.5 154.5q117 0 220 -47.5t163 -133t83 -203.5q12 -67 12 -224v-25h-782q3 -102 36.5 -180t103.5 -120.5t160 -42.5q109 0 178 49t114 165h178z M875 618q-7 162 -86.5 243.5t-205.5 81.5q-122 0 -207.5 -84.5t-98.5 -240.5h598zM476 1213l-203 295h162l135 -196l135 196h162l-203 -295h-188z" />
<glyph unicode="&#xed;" horiz-adv-x="569" d="M192 0v1071h184v-1071h-184zM146 1230l182 295h224l-269 -295h-137z" />
<glyph unicode="&#xee;" horiz-adv-x="569" d="M192 0v1071h184v-1071h-184zM186 1525h189l204 -295h-163l-135 198l-135 -198h-164z" />
<glyph unicode="&#xef;" horiz-adv-x="1371" d="M824 934v536h181v-1470h-163v134q-55 -62 -96 -93.5t-101.5 -52.5t-134.5 -21q-193 0 -320.5 141t-127.5 404q0 158 49.5 293.5t156.5 217t250 81.5q84 0 143.5 -25.5t101.5 -65.5q27 -26 61 -79zM247 524q0 -207 90 -316q70 -85 198 -85q138 0 221.5 100.5t83.5 324.5 q0 175 -66 274q-83 125 -227 125q-82 0 -151.5 -44.5t-109 -142.5t-39.5 -236zM1138 1086v72q52 11 76.5 43t22.5 89h-90v180h180v-180q0 -88 -51 -144.5t-138 -59.5z" />
<glyph unicode="&#xf0;" d="M832 1323v147h173v-147h133v-106h-133v-1217h-161v134q-56 -62 -97.5 -93.5t-101.5 -52.5t-135 -21q-193 0 -320.5 141t-127.5 404q0 146 45.5 282.5t154 223t257.5 86.5q73 0 132 -22t110 -65q34 -28 71 -83v283h-334v106h334zM247 524q0 -207 90 -316q70 -85 198 -85 q138 0 221.5 100.5t83.5 324.5q0 175 -66 274q-83 125 -227 125q-82 0 -151.5 -44.5t-109 -142.5t-39.5 -236z" />
<glyph unicode="&#xf1;" d="M134 1071h172v-151q40 55 74 84q55 48 123.5 74t151.5 26q101 0 174 -38t111.5 -89.5t51.5 -113.5q14 -62 14 -176v-687h-182v676q0 108 -20 157q-21 50 -72 80t-122 30q-73 0 -135 -30.5t-97.5 -84t-50.5 -118.5q-11 -44 -11 -122v-588h-182v1071zM479 1213l182 295h224 l-269 -295h-137z" />
<glyph unicode="&#xf2;" d="M134 1071h172v-151q40 55 74 84q55 48 123.5 74t151.5 26q101 0 174 -38t111.5 -89.5t51.5 -113.5q14 -62 14 -176v-687h-182v676q0 108 -20 157q-21 50 -72 80t-122 30q-73 0 -135 -30.5t-97.5 -84t-50.5 -118.5q-11 -44 -11 -122v-588h-182v1071zM493 1213l-203 295 h162l135 -196l135 196h162l-203 -295h-188z" />
<glyph unicode="&#xf3;" d="M1067 536q0 -118 -30 -224q-23 -80 -64.5 -142.5t-101 -108.5t-137.5 -70t-164 -24q-149 0 -261 65.5t-174.5 195t-62.5 308.5q0 256 129.5 412t368.5 156q150 0 266 -69t173.5 -200.5t57.5 -298.5zM883 536q0 203 -89 305t-224 102q-136 0 -224.5 -102.5t-88.5 -304.5 q0 -203 88.5 -305.5t224.5 -102.5q135 0 224 102.5t89 305.5zM431 1226l182 295h224l-269 -295h-137z" />
<glyph unicode="&#xf4;" d="M1067 536q0 -118 -30 -224q-23 -80 -64.5 -142.5t-101 -108.5t-137.5 -70t-164 -24q-149 0 -261 65.5t-174.5 195t-62.5 308.5q0 256 129.5 412t368.5 156q150 0 266 -69t173.5 -200.5t57.5 -298.5zM883 536q0 203 -89 305t-224 102q-136 0 -224.5 -102.5t-88.5 -304.5 q0 -203 88.5 -305.5t224.5 -102.5q135 0 224 102.5t89 305.5zM472 1521h189l204 -295h-163l-135 198l-135 -198h-164z" />
<glyph unicode="&#xf5;" d="M1067 536q0 -118 -30 -224q-23 -80 -64.5 -142.5t-101 -108.5t-137.5 -70t-164 -24q-149 0 -261 65.5t-174.5 195t-62.5 308.5q0 256 129.5 412t368.5 156q150 0 266 -69t173.5 -200.5t57.5 -298.5zM883 536q0 203 -89 305t-224 102q-136 0 -224.5 -102.5t-88.5 -304.5 q0 -203 88.5 -305.5t224.5 -102.5q135 0 224 102.5t89 305.5zM367 1213l109 295h183l-192 -295h-100zM647 1213l109 295h182l-192 -295h-99z" />
<glyph unicode="&#xf6;" d="M1067 536q0 -118 -30 -224q-23 -80 -64.5 -142.5t-101 -108.5t-137.5 -70t-164 -24q-149 0 -261 65.5t-174.5 195t-62.5 308.5q0 256 129.5 412t368.5 156q150 0 266 -69t173.5 -200.5t57.5 -298.5zM883 536q0 203 -89 305t-224 102q-136 0 -224.5 -102.5t-88.5 -304.5 q0 -203 88.5 -305.5t224.5 -102.5q135 0 224 102.5t89 305.5zM310 1250v208h184v-208h-184zM638 1250v208h184v-208h-184z" />
<glyph unicode="&#xf7;" horiz-adv-x="1124" d="M458 1024h211v-220h-211v220zM41 604h1043v-172h-1043v172zM669 21h-211v221h211v-221z" />
<glyph unicode="&#xf8;" horiz-adv-x="682" d="M137 0v1071h182v-177q47 107 123.5 158.5t156.5 51.5q24 0 59 -6v-190q-47 5 -66 5q-81 0 -150 -43t-102 -114q-21 -45 -21 -133v-8v-615h-182zM271 1213l-203 295h162l135 -196l135 196h162l-203 -295h-188z" />
<glyph unicode="&#xf9;" d="M138 1071h182v-711q0 -91 20 -136q20 -46 66.5 -71t117.5 -25q66 0 119.5 19.5t87.5 52.5q24 24 46 66.5t33 85.5t11 129v590h181v-1071h-171v158q-55 -94 -125 -136q-94 -55 -233 -55q-129 0 -204 48t-103 118.5t-28 208.5v729zM760 1357q0 -77 -56.5 -132t-137.5 -55 q-83 0 -140.5 56.5t-57.5 135.5t57 135.5t138 56.5q82 0 139.5 -57.5t57.5 -139.5zM674 1362q0 46 -32.5 78.5t-78.5 32.5t-79 -32.5t-33 -78.5q0 -47 33 -79.5t79 -32.5t78.5 32.5t32.5 79.5z" />
<glyph unicode="&#xfa;" d="M138 1071h182v-711q0 -91 20 -136q20 -46 66.5 -71t117.5 -25q66 0 119.5 19.5t87.5 52.5q24 24 46 66.5t33 85.5t11 129v590h181v-1071h-171v158q-55 -94 -125 -136q-94 -55 -233 -55q-129 0 -204 48t-103 118.5t-28 208.5v729zM439 1225l182 295h224l-269 -295h-137z " />
<glyph unicode="&#xfb;" d="M138 1071h182v-711q0 -91 20 -136q20 -46 66.5 -71t117.5 -25q66 0 119.5 19.5t87.5 52.5q24 24 46 66.5t33 85.5t11 129v590h181v-1071h-171v158q-55 -94 -125 -136q-94 -55 -233 -55q-129 0 -204 48t-103 118.5t-28 208.5v729zM346 1212l109 295h183l-192 -295h-100z M626 1212l109 295h182l-192 -295h-99z" />
<glyph unicode="&#xfc;" d="M138 1071h182v-711q0 -91 20 -136q20 -46 66.5 -71t117.5 -25q66 0 119.5 19.5t87.5 52.5q24 24 46 66.5t33 85.5t11 129v590h181v-1071h-171v158q-55 -94 -125 -136q-94 -55 -233 -55q-129 0 -204 48t-103 118.5t-28 208.5v729zM318 1250v208h184v-208h-184zM646 1250 v208h184v-208h-184z" />
<glyph unicode="&#xfd;" horiz-adv-x="1024" d="M22 1071h203l287 -879l286 879h203l-410 -1114q-88 -240 -152 -317q-65 -77 -195 -77q-56 0 -124 15v166q58 -21 109 -21q47 0 79 23t52 74l59 151zM372 1224l182 295h224l-269 -295h-137z" />
<glyph unicode="&#xfe;" horiz-adv-x="569" d="M169 1071v299h181v-299h171v-147h-171v-699q0 -44 23 -65.5t80 -21.5q31 0 68 4v-143q-54 -16 -130 -16q-116 0 -169 53.5t-53 179.5v708h-145v147h145zM223 -463v71q53 12 77 43.5t23 89.5h-91v180h181v-180q0 -89 -51 -145t-139 -59z" />
<glyph unicode="&#xff;" horiz-adv-x="682" d="M249 1262v208h184v-208h-184z" />
<glyph unicode="&#x152;" horiz-adv-x="1366" d="M1040 1038q-12 140 -103.5 217.5t-263.5 77.5q-115 0 -191.5 -31.5t-112.5 -89t-36 -121.5q0 -76 49.5 -126.5t200.5 -87.5l293 -72q229 -56 310 -154t81 -246q0 -127 -59.5 -223.5t-177.5 -150.5q-145 -68 -350 -68q-203 0 -339 73.5t-198 209.5q-43 94 -43 225v6h184 q3 -71 17 -114q21 -63 67.5 -111t125.5 -81.5t194 -33.5q141 0 239 45q72 32 106.5 85t34.5 120q0 103 -65.5 154.5t-216.5 89.5l-262 65q-210 53 -292.5 145t-82.5 229q0 125 63 227.5t183.5 156t281.5 53.5q167 0 295 -58.5t188 -160.5t64 -250h-184zM575 1568l182 295 h224l-269 -295h-137z" />
<glyph unicode="&#x153;" horiz-adv-x="1024" d="M244 338q5 -69 32 -116t88.5 -77t160.5 -30q129 0 192.5 51t63.5 121q0 57 -48 93t-156 62l-161 39q-179 43 -244 114t-65 179q0 86 47 165t139.5 122t215.5 43q193 0 299.5 -93.5t111.5 -242.5h-172q-10 92 -69.5 140t-179.5 48q-112 0 -166 -45.5t-54 -109.5 q0 -51 31 -83q46 -45 153 -70l207 -50q164 -39 223.5 -105.5t59.5 -168.5q0 -140 -105.5 -248.5t-329.5 -108.5q-151 0 -253 49.5t-151 143.5q-36 69 -42 178h172zM411 1213l182 295h224l-269 -295h-137z" />
<glyph unicode="&#x178;" horiz-adv-x="1024" d="M64 0v142l635 768h-588v161h830v-147l-631 -763h650v-161h-896zM426 1212l182 295h224l-269 -295h-137z" />
<glyph unicode="&#x2c6;" horiz-adv-x="961" d="M403 1470h154l353 -863h-163l-266 661l-265 -661h-164z" />
<glyph unicode="&#x2000;" horiz-adv-x="955" />
<glyph unicode="&#x2001;" horiz-adv-x="1910" />
<glyph unicode="&#x2002;" horiz-adv-x="955" />
<glyph unicode="&#x2003;" horiz-adv-x="1910" />
<glyph unicode="&#x2004;" horiz-adv-x="636" />
<glyph unicode="&#x2005;" horiz-adv-x="477" />
<glyph unicode="&#x2006;" horiz-adv-x="318" />
<glyph unicode="&#x2007;" horiz-adv-x="318" />
<glyph unicode="&#x2008;" horiz-adv-x="238" />
<glyph unicode="&#x2009;" horiz-adv-x="382" />
<glyph unicode="&#x200a;" horiz-adv-x="106" />
<glyph unicode="&#x2010;" horiz-adv-x="682" d="M90 479v185h502v-185h-502z" />
<glyph unicode="&#x2011;" horiz-adv-x="682" d="M90 479v185h502v-185h-502z" />
<glyph unicode="&#x2012;" horiz-adv-x="682" d="M90 479v185h502v-185h-502z" />
<glyph unicode="&#x2013;" horiz-adv-x="1024" d="M0 497v147h1024v-147h-1024z" />
<glyph unicode="&#x2014;" horiz-adv-x="2048" d="M265 497v147h1517v-147h-1517z" />
<glyph unicode="&#x2018;" horiz-adv-x="455" d="M332 1176v-222h-209v205q0 152 60 226q43 53 149 85v-94q-56 -13 -78.5 -58.5t-26.5 -141.5h105z" />
<glyph unicode="&#x2019;" horiz-adv-x="455" d="M123 1249v221h209v-204q0 -97 -23 -158t-65 -95.5t-121 -58.5v95q36 8 58 29t32.5 56t13.5 115h-104z" />
<glyph unicode="&#x201a;" horiz-adv-x="455" d="M123 0v221h209v-205q0 -96 -23 -157.5t-65 -95.5t-121 -58v94q36 9 58 30t32.5 56t13.5 115h-104z" />
<glyph unicode="&#x201c;" horiz-adv-x="682" d="M612 1176v-222h-209v205q0 153 62 228q42 52 147 83v-94q-57 -13 -79 -58.5t-26 -141.5h105zM280 1176v-222h-209v205q0 153 62 228q42 52 147 83v-94q-56 -13 -78.5 -58.5t-26.5 -141.5h105z" />
<glyph unicode="&#x201d;" horiz-adv-x="682" d="M71 1249v221h209v-204q0 -158 -69 -235q-43 -47 -140 -77v95q36 8 57 28t33 57t14 115h-104zM403 1249v221h209v-204q0 -138 -48.5 -207.5t-160.5 -104.5v95q35 8 56.5 28t33 57t14.5 115h-104z" />
<glyph unicode="&#x201e;" horiz-adv-x="682" d="M71 0v221h209v-205q0 -157 -69 -234q-43 -47 -140 -77v94q35 9 56.5 29t33.5 57t14 115h-104zM403 0v221h209v-205q0 -157 -69 -234q-42 -47 -140 -77v94q35 9 56.5 29t33 57t14.5 115h-104z" />
<glyph unicode="&#x2022;" horiz-adv-x="717" d="M580 734q0 -97 -62.5 -159.5t-158.5 -62.5q-95 0 -158 63t-63 159t62 158t159 62q96 0 158.5 -62.5t62.5 -157.5z" />
<glyph unicode="&#x2026;" horiz-adv-x="2048" d="M446 0h-209v220h209v-220zM1128 0h-208v220h208v-220zM1811 0h-209v220h209v-220z" />
<glyph unicode="&#x202f;" horiz-adv-x="382" />
<glyph unicode="&#x2039;" horiz-adv-x="682" d="M180 465v189l322 251v-180l-215 -166l215 -166v-180z" />
<glyph unicode="&#x203a;" horiz-adv-x="682" d="M180 213v180l216 166l-216 166v180l322 -251v-189z" />
<glyph unicode="&#x205f;" horiz-adv-x="477" />
<glyph unicode="&#x2122;" horiz-adv-x="2048" d="M1124 1469l187 -519l186 519h206v-725h-133v585l-201 -585h-116l-202 585v-585h-133v725h206zM177 1348v121h618v-121h-237v-604h-144v604h-237z" />
<glyph unicode="&#xe000;" horiz-adv-x="1070" d="M0 1070h1070v-1070h-1070v1070z" />
<glyph unicode="&#xfb01;" horiz-adv-x="1024" d="M706 1262v208h182v-208h-182zM706 0v1071h182v-1071h-182zM357 929v-929h-181v929h-148v142h148v166q0 89 25 138t87.5 82t160.5 33q41 0 86 -6v-164q-46 5 -70 5q-57 0 -82.5 -27t-25.5 -99v-128h178v-142h-178z" />
<glyph unicode="&#xfb02;" horiz-adv-x="1024" d="M706 0v1470h182v-1470h-182zM357 929v-929h-181v929h-148v142h148v166q0 89 25 138t87.5 82t160.5 33q41 0 86 -6v-164q-46 5 -70 5q-57 0 -82.5 -27t-25.5 -99v-128h178v-142h-178z" />
<glyph unicode="&#xfb03;" horiz-adv-x="1593" d="M1275 1262v208h182v-208h-182zM1275 0v1071h182v-1071h-182zM926 929v-929h-181v929h-148v142h148v166q0 89 25 138t87.5 82t160.5 33q41 0 86 -6v-164q-46 5 -70 5q-57 0 -82.5 -27t-25.5 -99v-128h178v-142h-178zM357 929v-929h-181v929h-148v142h148v166q0 89 25 138 t87.5 82t160.5 33q41 0 86 -6v-164q-46 5 -70 5q-57 0 -82.5 -27t-25.5 -99v-128h178v-142h-178z" />
<glyph unicode="&#xfb04;" horiz-adv-x="1593" d="M1275 0v1470h182v-1470h-182zM926 929v-929h-181v929h-148v142h148v166q0 89 25 138t87.5 82t160.5 33q41 0 86 -6v-164q-46 5 -70 5q-57 0 -82.5 -27t-25.5 -99v-128h178v-142h-178zM357 929v-929h-181v929h-148v142h148v166q0 89 25 138t87.5 82t160.5 33q41 0 86 -6 v-164q-46 5 -70 5q-57 0 -82.5 -27t-25.5 -99v-128h178v-142h-178z" />
<glyph horiz-adv-x="569" d="M192 0v1071h184v-1071h-184z" />
<glyph horiz-adv-x="682" d="M246 1507h189l204 -295h-163l-135 198l-135 -198h-164z" />
<glyph horiz-adv-x="682" d="M537 1358q0 -77 -56.5 -132t-137.5 -55q-83 0 -140.5 56.5t-57.5 135.5t57 135.5t138 56.5q82 0 139.5 -57.5t57.5 -139.5zM451 1363q0 46 -32.5 78.5t-78.5 32.5t-79 -32.5t-33 -78.5q0 -47 33 -79.5t79 -32.5t78.5 32.5t32.5 79.5z" />
<glyph horiz-adv-x="682" d="M241 -462v71q53 12 77 43.5t23 89.5h-91v180h181v-180q0 -89 -51 -145t-139 -59z" />
</font>
</defs></svg> 